{
    "openapi": "3.0.0",
    "info": {
        "title": "API",
        "version": "1.0"
    },
    "servers": [
        {
            "url": "http://127.0.0.1:8000"
        }
    ],
    "paths": {
        "/api/login": {
            "post": {
                "tags": [
                    "login"
                ],
                "summary": "Login API",
                "description": "Login API",
                "operationId": "postloginList",
                "parameters": [
                    {
                        "name": "email",
                        "in": "query",
                        "required": true
                    },
                    {
                        "name": "password",
                        "in": "query",
                        "required": true
                    }
                ],
                "responses": {
                    "200": {
                        "description": "Successful operation"
                    },
                    "401": {
                        "description": "Unauthenticated"
                    },
                    "403": {
                        "description": "Forbidden"
                    }
                }
            }
        },
        "/api/candidate": {
            "get": {
                "tags": [
                    "candidate"
                ],
                "summary": "list candidate API",
                "description": "list candidate API",
                "operationId": "getcandidateList",
                "responses": {
                    "200": {
                        "description": "Successful operation"
                    },
                    "401": {
                        "description": "Unauthenticated"
                    },
                    "403": {
                        "description": "Forbidden"
                    }
                },
                "security": [
                    {
                        "bearerAuth": []
                    }
                ]
            },
            "post": {
                "tags": [
                    "candidate"
                ],
                "summary": "add candidate API",
                "description": "Add candidate API",
                "operationId": "postcandidateList",
                "parameters": [
                    {
                        "name": "name",
                        "in": "query",
                        "required": true
                    },
                    {
                        "name": "education",
                        "in": "query",
                        "required": true
                    },
                    {
                        "name": "birthday",
                        "in": "query",
                        "required": true
                    },
                    {
                        "name": "experience",
                        "in": "query",
                        "required": true
                    },
                    {
                        "name": "last_position",
                        "in": "query",
                        "required": true
                    },
                    {
                        "name": "applied_position",
                        "in": "query",
                        "required": true
                    },
                    {
                        "name": "top_5_Skills",
                        "in": "query",
                        "required": true
                    },
                    {
                        "name": "email",
                        "in": "query",
                        "required": true
                    },
                    {
                        "name": "phone",
                        "in": "query",
                        "required": true
                    },
                    {
                        "name": "resume",
                        "in": "query",
                        "required": true
                    }
                ],
                "responses": {
                    "200": {
                        "description": "Successful operation"
                    },
                    "401": {
                        "description": "Unauthenticated"
                    },
                    "403": {
                        "description": "Forbidden"
                    }
                },
                "security": [
                    {
                        "bearerAuth": []
                    }
                ]
            }
        },
        "/api/candidate/{id}": {
            "get": {
                "tags": [
                    "candidate"
                ],
                "summary": "get candidate by ID API",
                "description": "Get candidate by ID API",
                "operationId": "getidcandidateList",
                "parameters": [
                    {
                        "name": "id",
                        "in": "path",
                        "required": true,
                        "schema": {
                            "type": "integer"
                        }
                    }
                ],
                "responses": {
                    "200": {
                        "description": "Successful operation"
                    },
                    "401": {
                        "description": "Unauthenticated"
                    },
                    "403": {
                        "description": "Forbidden"
                    }
                },
                "security": [
                    {
                        "bearerAuth": []
                    }
                ]
            },
            "put": {
                "tags": [
                    "candidate"
                ],
                "summary": "put candidate API",
                "description": "Put candidate API",
                "operationId": "putcandidateList",
                "parameters": [
                    {
                        "name": "id",
                        "in": "path",
                        "required": true,
                        "schema": {
                            "type": "integer"
                        }
                    },
                    {
                        "name": "name",
                        "in": "query",
                        "required": true
                    },
                    {
                        "name": "name",
                        "in": "query",
                        "required": true
                    },
                    {
                        "name": "education",
                        "in": "query",
                        "required": true
                    },
                    {
                        "name": "birthday",
                        "in": "query",
                        "required": true
                    },
                    {
                        "name": "experience",
                        "in": "query",
                        "required": true
                    },
                    {
                        "name": "last_position",
                        "in": "query",
                        "required": true
                    },
                    {
                        "name": "applied_position",
                        "in": "query",
                        "required": true
                    },
                    {
                        "name": "top_5_Skills",
                        "in": "query",
                        "required": true
                    },
                    {
                        "name": "email",
                        "in": "query",
                        "required": true
                    },
                    {
                        "name": "phone",
                        "in": "query",
                        "required": true
                    },
                    {
                        "name": "resume",
                        "in": "query",
                        "required": true
                    }
                ],
                "responses": {
                    "202": {
                        "description": "Successful operation"
                    },
                    "400": {
                        "description": "Bad Request"
                    },
                    "401": {
                        "description": "Unauthenticated"
                    },
                    "403": {
                        "description": "Forbidden"
                    },
                    "404": {
                        "description": "Resource Not Found"
                    }
                }
            },
            "delete": {
                "tags": [
                    "candidate"
                ],
                "summary": "delete candidate API",
                "description": "Delete candidate API",
                "operationId": "deletecandidateList",
                "parameters": [
                    {
                        "name": "id",
                        "in": "path",
                        "required": true,
                        "schema": {
                            "type": "integer"
                        }
                    }
                ],
                "responses": {
                    "200": {
                        "description": "Successful operation"
                    },
                    "401": {
                        "description": "Unauthenticated"
                    },
                    "403": {
                        "description": "Forbidden"
                    }
                },
                "security": [
                    {
                        "bearerAuth": []
                    }
                ]
            }
        }
    },
    "components": {
        "securitySchemes": {
            "passport": {
                "type": "bearer",
                "description": "Laravel passport bearer security.",
                "in": "header",
                "scheme": "http"
            },
            "bearerAuth": {
                "type": "apiKey",
                "description": "Enter token in format (Bearer <token>)",
                "name": "Authorization",
                "in": "header"
            }
        }
    },
    "security": [
        {
            "passport": [],
            "components": [],
            "bearerAuth": []
        }
    ]
}